<?xml version="1.0" encoding="UTF-8" standalone="no"?>
<!-- Created with Inkscape (http://www.inkscape.org/) -->

<svg
   xmlns:dc="http://purl.org/dc/elements/1.1/"
   xmlns:cc="http://creativecommons.org/ns#"
   xmlns:rdf="http://www.w3.org/1999/02/22-rdf-syntax-ns#"
   xmlns:svg="http://www.w3.org/2000/svg"
   xmlns="http://www.w3.org/2000/svg"
   xmlns:sodipodi="http://sodipodi.sourceforge.net/DTD/sodipodi-0.dtd"
   xmlns:inkscape="http://www.inkscape.org/namespaces/inkscape"
   version="1.1"
   width="78.483116"
   height="78.427162"
   id="svg2"
   sodipodi:docname="logo-white.svg"
   inkscape:version="0.92.1 r15371"
   inkscape:export-filename="C:\dev\graphics\adfsee-icon.png"
   inkscape:export-xdpi="19.585051"
   inkscape:export-ydpi="19.585051">
  <sodipodi:namedview
     pagecolor="#ffffff"
     bordercolor="#666666"
     borderopacity="1"
     objecttolerance="10"
     gridtolerance="10"
     guidetolerance="10"
     inkscape:pageopacity="0"
     inkscape:pageshadow="2"
     inkscape:window-width="1920"
     inkscape:window-height="1027"
     id="namedview4518"
     showgrid="false"
     inkscape:zoom="2.3276096"
     inkscape:cx="-44.771181"
     inkscape:cy="-7.2012799"
     inkscape:window-x="-8"
     inkscape:window-y="-8"
     inkscape:window-maximized="1"
     inkscape:current-layer="svg2"
     fit-margin-top="0"
     fit-margin-left="0"
     fit-margin-right="0"
     fit-margin-bottom="0" />
  <defs
     id="defs4" />
  <metadata
     id="metadata7">
    <rdf:RDF>
      <cc:Work
         rdf:about="">
        <dc:format>image/svg+xml</dc:format>
        <dc:type
           rdf:resource="http://purl.org/dc/dcmitype/StillImage" />
        <dc:title />
      </cc:Work>
    </rdf:RDF>
  </metadata>
  <g
     id="g4495">
    <g
       style="stroke:#ffffff;stroke-opacity:1"
       inkscape:export-ydpi="199"
       inkscape:export-xdpi="199"
       inkscape:export-filename="C:\Users\helge.krieg\layer1.png"
       id="layer1"
       transform="matrix(-0.43950065,0.00233429,-0.00242532,-0.42300252,139.0787,122.01085)">
      <ellipse
         ry="81.557541"
         rx="78.141335"
         transform="rotate(-179.68382)"
         cy="-195.73407"
         cx="-227.15695"
         id="path4501"
         style="opacity:1;vector-effect:none;fill:none;fill-opacity:1;stroke:#ffffff;stroke-width:22.28799438;stroke-linecap:butt;stroke-linejoin:miter;stroke-miterlimit:4;stroke-dasharray:none;stroke-dashoffset:0;stroke-opacity:1;paint-order:normal" />
    </g>
    <circle
       transform="rotate(172.34009)"
       style="fill:none;fill-opacity:1;stroke:#ffffff;stroke-width:20.48881912;stroke-miterlimit:4;stroke-dasharray:none;stroke-opacity:1"
       id="circle4522"
       cx="-10.5563"
       cy="-52.878597"
       r="4.8332849" />
    <circle
       transform="rotate(172.34009)"
       r="4.8332849"
       cy="-32.838978"
       cx="-53.330658"
       id="path4520"
       style="fill:none;fill-opacity:1;stroke:#ffffff;stroke-width:20.48881912;stroke-miterlimit:4;stroke-dasharray:none;stroke-opacity:1" />
    <path
       sodipodi:nodetypes="czc"
       inkscape:connector-curvature="0"
       id="path4524"
       d="m 49.31817,26.157239 c 0,0 -7.593555,-5.586966 -18.439766,1.113988 -10.846212,6.700954 -10.816436,15.467639 -10.816436,15.467639"
       style="fill:none;stroke:#ffffff;stroke-width:7.04881907;stroke-linecap:butt;stroke-linejoin:miter;stroke-miterlimit:4;stroke-dasharray:none;stroke-opacity:1" />
    <ellipse
       ry="3.1042926"
       rx="3.1043658"
       cy="51.003582"
       cx="17.066578"
       id="path4505"
       style="opacity:1;vector-effect:none;fill:#ffffff;fill-opacity:1;stroke:none;stroke-width:6.75926828;stroke-linecap:butt;stroke-linejoin:miter;stroke-miterlimit:4;stroke-dasharray:none;stroke-dashoffset:0;stroke-opacity:1;paint-order:normal" />
    <ellipse
       style="opacity:1;vector-effect:none;fill:#ffffff;fill-opacity:1;stroke:none;stroke-width:6.75926828;stroke-linecap:butt;stroke-linejoin:miter;stroke-miterlimit:4;stroke-dasharray:none;stroke-dashoffset:0;stroke-opacity:1;paint-order:normal"
       id="ellipse4509"
       cx="56.740223"
       cy="25.440876"
       rx="3.1043658"
       ry="3.1042926" />
  </g>
</svg>
